[
  [
    {
      "productId": "9e99ca84-163e-4f27-9ca7-16872554d3f4",
      "productTitle": "Zon [1], 75 min, 1 Ungdom",
      "productDescription": "Zon [1], 75 min, 1 Ungdom, Ej återbetalbar",
      "productCategoryId": "singleTrip",
      "travellerCategoryId": "h",
      "travellersPerCategory": [
        {
          "cat": "h",
          "tra": "1"
        }
      ],
      "fares": [
        {
          "amount": 20.00,
          "currency": "SEK",
          "vatAmount": 1.20,
          "vatPercent": 6.00
        }
      ],
      "productExpire": "2020-12-17T15:26:45Z",
      "productProperties": [],
      "spatialValidity": {
        "groups": [
          {
            "groupType": "zone",
            "groupIds": [
              "1"
            ]
          }
        ]
      }
    }
  ],
  [
    {
      "productId": "5de7a884-8fec-4dee-b29c-fb1145306f2c",
      "productTitle": "Zon [1], 30 dagar, 1 Ungdom",
      "productDescription": "Zon [1], 30 dagar, 1 Ungdom, Återbetalbar",
      "productCategoryId": "monthlyPass",
      "travellerCategoryId": "h",
      "travellersPerCategory": [
        {
          "cat": "h",
          "tra": "1"
        }
      ],
      "fares": [
        {
          "amount": 660.00,
          "currency": "SEK",
          "vatAmount": 39.60,
          "vatPercent": 6.00
        }
      ],
      "productExpire": "2020-12-17T15:26:45Z",
      "productProperties": [],
      "spatialValidity": {
        "groups": [
          {
            "groupType": "zone",
            "groupIds": [
              "1"
            ]
          }
        ]
      }
    }
  ]
]